,Request At,Source IP address,Country,Request URL,User agent,Response code
0,2023-02-13 19:16:05+00:00,187.132.199.78,Mexico,-,"S3Console/0.4, aws-internal/3 aws-sdk-java/1.11.1030 Linux/5.10.162-124.675.amzn2int.x86_64 OpenJDK_64-Bit_Server_VM/25.352-b08 java/1.8.0_352 vendor/Oracle_Corporation cfg/retry-mode/standard",200
1,2023-02-13 19:16:05+00:00,187.132.199.78,Mexico,-,"S3Console/0.4, aws-internal/3 aws-sdk-java/1.11.1030 Linux/5.10.157-122.673.amzn2int.x86_64 OpenJDK_64-Bit_Server_VM/25.352-b08 java/1.8.0_352 vendor/Oracle_Corporation cfg/retry-mode/standard",200
2,2023-02-13 19:16:06+00:00,187.132.199.78,Mexico,-,"S3Console/0.4, aws-internal/3 aws-sdk-java/1.11.1030 Linux/5.10.157-122.673.amzn2int.x86_64 OpenJDK_64-Bit_Server_VM/25.352-b08 java/1.8.0_352 vendor/Oracle_Corporation cfg/retry-mode/standard",200
3,2023-02-13 19:16:06+00:00,187.132.199.78,Mexico,-,"S3Console/0.4, aws-internal/3 aws-sdk-java/1.11.1030 Linux/5.10.162-124.675.amzn2int.x86_64 OpenJDK_64-Bit_Server_VM/25.352-b08 java/1.8.0_352 vendor/Oracle_Corporation cfg/retry-mode/standard",200
4,2023-02-13 19:16:06+00:00,187.132.199.78,Mexico,-,"S3Console/0.4, aws-internal/3 aws-sdk-java/1.11.1030 Linux/5.10.162-124.675.amzn2int.x86_64 OpenJDK_64-Bit_Server_VM/25.352-b08 java/1.8.0_352 vendor/Oracle_Corporation cfg/retry-mode/standard",200
5,2023-02-13 19:16:06+00:00,187.132.199.78,Mexico,-,"S3Console/0.4, aws-internal/3 aws-sdk-java/1.11.1030 Linux/5.10.165-126.735.amzn2int.x86_64 OpenJDK_64-Bit_Server_VM/25.352-b08 java/1.8.0_352 vendor/Oracle_Corporation cfg/retry-mode/standard",200
6,2023-02-13 19:16:06+00:00,187.132.199.78,Mexico,-,"S3Console/0.4, aws-internal/3 aws-sdk-java/1.11.1030 Linux/5.10.165-126.735.amzn2int.x86_64 OpenJDK_64-Bit_Server_VM/25.352-b08 java/1.8.0_352 vendor/Oracle_Corporation cfg/retry-mode/standard",200
7,2023-02-13 19:16:06+00:00,187.132.199.78,Mexico,-,"S3Console/0.4, aws-internal/3 aws-sdk-java/1.11.1030 Linux/5.10.162-124.675.amzn2int.x86_64 OpenJDK_64-Bit_Server_VM/25.352-b08 java/1.8.0_352 vendor/Oracle_Corporation cfg/retry-mode/standard",404
8,2023-02-13 19:16:06+00:00,187.132.199.78,Mexico,-,"S3Console/0.4, aws-internal/3 aws-sdk-java/1.11.1030 Linux/5.10.162-124.675.amzn2int.x86_64 OpenJDK_64-Bit_Server_VM/25.352-b08 java/1.8.0_352 vendor/Oracle_Corporation cfg/retry-mode/standard",200
9,2023-02-13 19:16:06+00:00,187.132.199.78,Mexico,-,"S3Console/0.4, aws-internal/3 aws-sdk-java/1.11.1030 Linux/5.10.165-126.735.amzn2int.x86_64 OpenJDK_64-Bit_Server_VM/25.352-b08 java/1.8.0_352 vendor/Oracle_Corporation cfg/retry-mode/standard",200
10,2023-02-13 19:16:06+00:00,187.132.199.78,Mexico,-,"S3Console/0.4, aws-internal/3 aws-sdk-java/1.11.1030 Linux/5.10.162-124.675.amzn2int.x86_64 OpenJDK_64-Bit_Server_VM/25.352-b08 java/1.8.0_352 vendor/Oracle_Corporation cfg/retry-mode/standard",200
11,2023-02-13 19:16:06+00:00,187.132.199.78,Mexico,-,"S3Console/0.4, aws-internal/3 aws-sdk-java/1.11.1030 Linux/5.10.162-124.675.amzn2int.x86_64 OpenJDK_64-Bit_Server_VM/25.352-b08 java/1.8.0_352 vendor/Oracle_Corporation cfg/retry-mode/standard",404
12,2023-02-13 19:16:06+00:00,187.132.199.78,Mexico,-,"S3Console/0.4, aws-internal/3 aws-sdk-java/1.11.1030 Linux/5.10.162-124.675.amzn2int.x86_64 OpenJDK_64-Bit_Server_VM/25.352-b08 java/1.8.0_352 vendor/Oracle_Corporation cfg/retry-mode/standard",200
13,2023-02-13 19:16:06+00:00,187.132.199.78,Mexico,-,"S3Console/0.4, aws-internal/3 aws-sdk-java/1.11.1030 Linux/5.10.162-124.675.amzn2int.x86_64 OpenJDK_64-Bit_Server_VM/25.352-b08 java/1.8.0_352 vendor/Oracle_Corporation cfg/retry-mode/standard",200
14,2023-02-13 19:16:06+00:00,187.132.199.78,Mexico,-,"S3Console/0.4, aws-internal/3 aws-sdk-java/1.11.1030 Linux/5.10.162-124.675.amzn2int.x86_64 OpenJDK_64-Bit_Server_VM/25.352-b08 java/1.8.0_352 vendor/Oracle_Corporation cfg/retry-mode/standard",404
15,2023-02-13 19:16:06+00:00,187.132.199.78,Mexico,-,"S3Console/0.4, aws-internal/3 aws-sdk-java/1.11.1030 Linux/5.10.162-124.675.amzn2int.x86_64 OpenJDK_64-Bit_Server_VM/25.352-b08 java/1.8.0_352 vendor/Oracle_Corporation cfg/retry-mode/standard",200
16,2023-02-13 19:16:06+00:00,187.132.199.78,Mexico,-,"S3Console/0.4, aws-internal/3 aws-sdk-java/1.11.1030 Linux/5.10.162-124.675.amzn2int.x86_64 OpenJDK_64-Bit_Server_VM/25.352-b08 java/1.8.0_352 vendor/Oracle_Corporation cfg/retry-mode/standard",200
17,2023-02-13 19:16:06+00:00,187.132.199.78,Mexico,-,"S3Console/0.4, aws-internal/3 aws-sdk-java/1.11.1030 Linux/5.10.162-124.675.amzn2int.x86_64 OpenJDK_64-Bit_Server_VM/25.352-b08 java/1.8.0_352 vendor/Oracle_Corporation cfg/retry-mode/standard",200
18,2023-02-13 19:16:05+00:00,187.132.199.78,Mexico,-,"S3Console/0.4, aws-internal/3 aws-sdk-java/1.11.1030 Linux/5.10.162-124.675.amzn2int.x86_64 OpenJDK_64-Bit_Server_VM/25.352-b08 java/1.8.0_352 vendor/Oracle_Corporation cfg/retry-mode/standard",200
19,2023-02-13 19:16:06+00:00,187.132.199.78,Mexico,-,"S3Console/0.4, aws-internal/3 aws-sdk-java/1.11.1030 Linux/5.10.162-124.675.amzn2int.x86_64 OpenJDK_64-Bit_Server_VM/25.352-b08 java/1.8.0_352 vendor/Oracle_Corporation cfg/retry-mode/standard",200
20,2023-02-13 19:16:06+00:00,187.132.199.78,Mexico,-,"S3Console/0.4, aws-internal/3 aws-sdk-java/1.11.1030 Linux/5.10.162-124.675.amzn2int.x86_64 OpenJDK_64-Bit_Server_VM/25.352-b08 java/1.8.0_352 vendor/Oracle_Corporation cfg/retry-mode/standard",200
21,2023-02-13 19:16:05+00:00,187.132.199.78,Mexico,-,"S3Console/0.4, aws-internal/3 aws-sdk-java/1.11.1030 Linux/5.10.162-124.675.amzn2int.x86_64 OpenJDK_64-Bit_Server_VM/25.352-b08 java/1.8.0_352 vendor/Oracle_Corporation cfg/retry-mode/standard",200
22,2023-02-13 19:16:06+00:00,187.132.199.78,Mexico,-,"S3Console/0.4, aws-internal/3 aws-sdk-java/1.11.1030 Linux/5.10.162-124.675.amzn2int.x86_64 OpenJDK_64-Bit_Server_VM/25.352-b08 java/1.8.0_352 vendor/Oracle_Corporation cfg/retry-mode/standard",200
23,2023-02-13 19:16:04+00:00,187.132.199.78,Mexico,-,"S3Console/0.4, aws-internal/3 aws-sdk-java/1.11.1030 Linux/5.10.162-124.675.amzn2int.x86_64 OpenJDK_64-Bit_Server_VM/25.352-b08 java/1.8.0_352 vendor/Oracle_Corporation cfg/retry-mode/standard",200
24,2023-02-13 19:16:06+00:00,187.132.199.78,Mexico,-,"S3Console/0.4, aws-internal/3 aws-sdk-java/1.11.1030 Linux/5.10.162-124.675.amzn2int.x86_64 OpenJDK_64-Bit_Server_VM/25.352-b08 java/1.8.0_352 vendor/Oracle_Corporation cfg/retry-mode/standard",200
25,2023-02-13 19:16:06+00:00,187.132.199.78,Mexico,-,"S3Console/0.4, aws-internal/3 aws-sdk-java/1.11.1030 Linux/5.10.162-124.675.amzn2int.x86_64 OpenJDK_64-Bit_Server_VM/25.352-b08 java/1.8.0_352 vendor/Oracle_Corporation cfg/retry-mode/standard",200
26,2023-02-13 19:16:06+00:00,187.132.199.78,Mexico,-,"S3Console/0.4, aws-internal/3 aws-sdk-java/1.11.1030 Linux/5.10.162-124.675.amzn2int.x86_64 OpenJDK_64-Bit_Server_VM/25.352-b08 java/1.8.0_352 vendor/Oracle_Corporation cfg/retry-mode/standard",200
27,2023-02-13 19:16:05+00:00,187.132.199.78,Mexico,-,"S3Console/0.4, aws-internal/3 aws-sdk-java/1.11.1030 Linux/5.10.162-124.675.amzn2int.x86_64 OpenJDK_64-Bit_Server_VM/25.352-b08 java/1.8.0_352 vendor/Oracle_Corporation cfg/retry-mode/standard",200
28,2023-02-13 19:16:06+00:00,187.132.199.78,Mexico,-,"S3Console/0.4, aws-internal/3 aws-sdk-java/1.11.1030 Linux/5.10.162-124.675.amzn2int.x86_64 OpenJDK_64-Bit_Server_VM/25.352-b08 java/1.8.0_352 vendor/Oracle_Corporation cfg/retry-mode/standard",200
29,2023-02-14 09:15:50+00:00,179.118.177.121,Brazil,http://clauro-website.s3-website-sa-east-1.amazonaws.com/,"Mozilla/5.0 (iPhone; CPU iPhone OS 16_1_1 like Mac OS X) AppleWebKit/605.1.15 (KHTML, like Gecko) Version/16.1 Mobile/15E148 Safari/604.1",304
30,2023-02-14 09:15:50+00:00,179.118.177.121,Brazil,-,"Mozilla/5.0 (iPhone; CPU iPhone OS 16_1_1 like Mac OS X) AppleWebKit/605.1.15 (KHTML, like Gecko) Version/16.1 Mobile/15E148 Safari/604.1",304
31,2023-02-14 09:15:50+00:00,179.118.177.121,Brazil,http://clauro-website.s3-website-sa-east-1.amazonaws.com/,"Mozilla/5.0 (iPhone; CPU iPhone OS 16_1_1 like Mac OS X) AppleWebKit/605.1.15 (KHTML, like Gecko) Version/16.1 Mobile/15E148 Safari/604.1",304
32,2023-02-14 09:15:50+00:00,179.118.177.121,Brazil,http://clauro-website.s3-website-sa-east-1.amazonaws.com/,"Mozilla/5.0 (iPhone; CPU iPhone OS 16_1_1 like Mac OS X) AppleWebKit/605.1.15 (KHTML, like Gecko) Version/16.1 Mobile/15E148 Safari/604.1",304
33,2023-02-14 22:46:56+00:00,189.121.203.162,Brazil,http://clauro-website.s3-website-sa-east-1.amazonaws.com/,"Mozilla/5.0 (iPhone; CPU iPhone OS 16_2 like Mac OS X) AppleWebKit/605.1.15 (KHTML, like Gecko) CriOS/110.0.5481.83 Mobile/15E148 Safari/604.1",200
34,2023-02-14 22:46:56+00:00,189.121.203.162,Brazil,http://clauro-website.s3-website-sa-east-1.amazonaws.com/,"Mozilla/5.0 (iPhone; CPU iPhone OS 16_2 like Mac OS X) AppleWebKit/605.1.15 (KHTML, like Gecko) CriOS/110.0.5481.83 Mobile/15E148 Safari/604.1",200
35,2023-02-14 22:46:56+00:00,189.121.203.162,Brazil,-,"Mozilla/5.0 (iPhone; CPU iPhone OS 16_2 like Mac OS X) AppleWebKit/605.1.15 (KHTML, like Gecko) CriOS/110.0.5481.83 Mobile/15E148 Safari/604.1",200
36,2023-02-14 22:46:56+00:00,189.121.203.162,Brazil,http://clauro-website.s3-website-sa-east-1.amazonaws.com/,"Mozilla/5.0 (iPhone; CPU iPhone OS 16_2 like Mac OS X) AppleWebKit/605.1.15 (KHTML, like Gecko) CriOS/110.0.5481.83 Mobile/15E148 Safari/604.1",200
37,2023-02-14 22:47:02+00:00,189.121.203.162,Brazil,-,"Mozilla/5.0 (iPhone; CPU iPhone OS 16_2 like Mac OS X) AppleWebKit/605.1.15 (KHTML, like Gecko) CriOS/110.0.5481.83 Mobile/15E148 Safari/604.1",200
38,2023-02-14 23:47:16+00:00,187.184.159.226,Mexico,-,"Mozilla/5.0 (Linux; Android 12; moto g71 5G) AppleWebKit/537.36 (KHTML, like Gecko) Chrome/109.0.0.0 Mobile Safari/537.36",200
39,2023-02-14 23:47:16+00:00,187.184.159.226,Mexico,http://clauro-website.s3-website-sa-east-1.amazonaws.com/,"Mozilla/5.0 (Linux; Android 12; moto g71 5G) AppleWebKit/537.36 (KHTML, like Gecko) Chrome/109.0.0.0 Mobile Safari/537.36",200
40,2023-02-14 23:47:16+00:00,187.184.159.226,Mexico,http://clauro-website.s3-website-sa-east-1.amazonaws.com/,"Mozilla/5.0 (Linux; Android 12; moto g71 5G) AppleWebKit/537.36 (KHTML, like Gecko) Chrome/109.0.0.0 Mobile Safari/537.36",200
41,2023-02-14 23:47:16+00:00,187.184.159.226,Mexico,http://clauro-website.s3-website-sa-east-1.amazonaws.com/,"Mozilla/5.0 (Linux; Android 12; moto g71 5G) AppleWebKit/537.36 (KHTML, like Gecko) Chrome/109.0.0.0 Mobile Safari/537.36",200
42,2023-02-15 02:49:31+00:00,187.132.199.78,Mexico,-,"S3Console/0.4, aws-internal/3 aws-sdk-java/1.11.1030 Linux/5.10.162-124.675.amzn2int.x86_64 OpenJDK_64-Bit_Server_VM/25.352-b08 java/1.8.0_352 vendor/Oracle_Corporation cfg/retry-mode/standard",200
43,2023-02-15 02:49:31+00:00,187.132.199.78,Mexico,-,"S3Console/0.4, aws-internal/3 aws-sdk-java/1.11.1030 Linux/5.10.162-124.675.amzn2int.x86_64 OpenJDK_64-Bit_Server_VM/25.352-b08 java/1.8.0_352 vendor/Oracle_Corporation cfg/retry-mode/standard",200
44,2023-02-15 02:49:32+00:00,187.132.199.78,Mexico,-,"S3Console/0.4, aws-internal/3 aws-sdk-java/1.11.1030 Linux/5.10.165-126.735.amzn2int.x86_64 OpenJDK_64-Bit_Server_VM/25.352-b08 java/1.8.0_352 vendor/Oracle_Corporation cfg/retry-mode/standard",200
45,2023-02-15 02:49:32+00:00,187.132.199.78,Mexico,-,"S3Console/0.4, aws-internal/3 aws-sdk-java/1.11.1030 Linux/5.10.165-126.735.amzn2int.x86_64 OpenJDK_64-Bit_Server_VM/25.352-b08 java/1.8.0_352 vendor/Oracle_Corporation cfg/retry-mode/standard",200
46,2023-02-15 02:49:32+00:00,187.132.199.78,Mexico,-,"S3Console/0.4, aws-internal/3 aws-sdk-java/1.11.1030 Linux/5.10.165-126.735.amzn2int.x86_64 OpenJDK_64-Bit_Server_VM/25.352-b08 java/1.8.0_352 vendor/Oracle_Corporation cfg/retry-mode/standard",200
47,2023-02-15 10:31:57+00:00,108.174.2.219,United States of America,-,LinkedInBot/1.0 (compatible; Mozilla/5.0; Apache-HttpClient +http://www.linkedin.com),200
48,2023-02-16 04:50:09+00:00,187.143.151.93,Mexico,-,"S3Console/0.4, aws-internal/3 aws-sdk-java/1.11.1030 Linux/5.10.165-126.735.amzn2int.x86_64 OpenJDK_64-Bit_Server_VM/25.352-b08 java/1.8.0_352 vendor/Oracle_Corporation cfg/retry-mode/standard",200
49,2023-02-16 04:50:09+00:00,187.143.151.93,Mexico,-,"S3Console/0.4, aws-internal/3 aws-sdk-java/1.11.1030 Linux/5.10.165-126.735.amzn2int.x86_64 OpenJDK_64-Bit_Server_VM/25.352-b08 java/1.8.0_352 vendor/Oracle_Corporation cfg/retry-mode/standard",200
50,2023-02-16 04:50:09+00:00,187.143.151.93,Mexico,-,"S3Console/0.4, aws-internal/3 aws-sdk-java/1.11.1030 Linux/5.10.165-126.735.amzn2int.x86_64 OpenJDK_64-Bit_Server_VM/25.352-b08 java/1.8.0_352 vendor/Oracle_Corporation cfg/retry-mode/standard",200
51,2023-02-16 15:58:02+00:00,189.40.74.163,Brazil,-,"Mozilla/5.0 (iPhone; CPU iPhone OS 16_1_1 like Mac OS X) AppleWebKit/605.1.15 (KHTML, like Gecko) Version/16.1 Mobile/15E148 Safari/604.1",304
52,2023-02-16 16:05:39+00:00,189.40.74.163,Brazil,-,"Mozilla/5.0 (iPhone; CPU iPhone OS 16_1_1 like Mac OS X) AppleWebKit/605.1.15 (KHTML, like Gecko) Version/16.1 Mobile/15E148 Safari/604.1",304
53,2023-02-17 05:31:46+00:00,189.129.33.102,Mexico,https://l.instagram.com/,"Mozilla/5.0 (Windows NT 10.0; Win64; x64) AppleWebKit/537.36 (KHTML, like Gecko) Chrome/108.0.0.0 Safari/537.36 OPR/94.0.0.0",200
54,2023-02-17 05:31:48+00:00,189.129.33.102,Mexico,http://clauro-website.s3-website-sa-east-1.amazonaws.com/,"Mozilla/5.0 (Windows NT 10.0; Win64; x64) AppleWebKit/537.36 (KHTML, like Gecko) Chrome/108.0.0.0 Safari/537.36 OPR/94.0.0.0",200
55,2023-02-17 05:31:48+00:00,189.129.33.102,Mexico,http://clauro-website.s3-website-sa-east-1.amazonaws.com/,"Mozilla/5.0 (Windows NT 10.0; Win64; x64) AppleWebKit/537.36 (KHTML, like Gecko) Chrome/108.0.0.0 Safari/537.36 OPR/94.0.0.0",200
56,2023-02-17 05:31:49+00:00,189.129.33.102,Mexico,http://clauro-website.s3-website-sa-east-1.amazonaws.com/,"Mozilla/5.0 (Windows NT 10.0; Win64; x64) AppleWebKit/537.36 (KHTML, like Gecko) Chrome/108.0.0.0 Safari/537.36 OPR/94.0.0.0",200
57,2023-02-17 14:50:13+00:00,189.240.47.58,Mexico,http://clauro-website.s3-website-sa-east-1.amazonaws.com/?fbclid=PAAabC7gbzhX-Mbq-86BZRFpYR3zbjN3G0b2fv_oc4kWicNqA3Ir9hO82Y4xM,"Mozilla/5.0 (Linux; Android 12; moto g71 5G Build/S2RUBS32.51-15-3-6; wv) AppleWebKit/537.36 (KHTML, like Gecko) Version/4.0 Chrome/109.0.5414.117 Mobile Safari/537.36 Instagram 270.0.0.23.82 Android (31/12; 420dpi; 1080x2237; motorola; moto g71 5G; corfur; qcom; en_US; 446608655)",200
58,2023-02-17 14:50:13+00:00,189.240.47.58,Mexico,http://clauro-website.s3-website-sa-east-1.amazonaws.com/?fbclid=PAAabC7gbzhX-Mbq-86BZRFpYR3zbjN3G0b2fv_oc4kWicNqA3Ir9hO82Y4xM,"Mozilla/5.0 (Linux; Android 12; moto g71 5G Build/S2RUBS32.51-15-3-6; wv) AppleWebKit/537.36 (KHTML, like Gecko) Version/4.0 Chrome/109.0.5414.117 Mobile Safari/537.36 Instagram 270.0.0.23.82 Android (31/12; 420dpi; 1080x2237; motorola; moto g71 5G; corfur; qcom; en_US; 446608655)",200
59,2023-02-17 14:50:12+00:00,189.240.47.58,Mexico,https://l.instagram.com/,"Mozilla/5.0 (Linux; Android 12; moto g71 5G Build/S2RUBS32.51-15-3-6; wv) AppleWebKit/537.36 (KHTML, like Gecko) Version/4.0 Chrome/109.0.5414.117 Mobile Safari/537.36 Instagram 270.0.0.23.82 Android (31/12; 420dpi; 1080x2237; motorola; moto g71 5G; corfur; qcom; en_US; 446608655)",200
60,2023-02-17 14:50:13+00:00,189.240.47.58,Mexico,http://clauro-website.s3-website-sa-east-1.amazonaws.com/?fbclid=PAAabC7gbzhX-Mbq-86BZRFpYR3zbjN3G0b2fv_oc4kWicNqA3Ir9hO82Y4xM,"Mozilla/5.0 (Linux; Android 12; moto g71 5G Build/S2RUBS32.51-15-3-6; wv) AppleWebKit/537.36 (KHTML, like Gecko) Version/4.0 Chrome/109.0.5414.117 Mobile Safari/537.36 Instagram 270.0.0.23.82 Android (31/12; 420dpi; 1080x2237; motorola; moto g71 5G; corfur; qcom; en_US; 446608655)",200
61,2023-02-18 17:31:22+00:00,189.98.240.211,Brazil,http://clauro-website.s3-website-sa-east-1.amazonaws.com/?fbclid=PAAabalkAbcTzC63JBmXVmvwG1MjTRGbu4FG6BPCrL67E8Y2x2C-DrxMYDF9A,"Mozilla/5.0 (iPhone; CPU iPhone OS 14_8 like Mac OS X) AppleWebKit/605.1.15 (KHTML, like Gecko) Mobile/15E148 Instagram 270.0.0.13.83 (iPhone9,2; iOS 14_8; pt_BR; pt-BR; scale=2.61; 1080x1920; 445843881)",200
62,2023-02-18 17:31:22+00:00,189.96.231.102,Brazil,http://clauro-website.s3-website-sa-east-1.amazonaws.com/?fbclid=PAAabalkAbcTzC63JBmXVmvwG1MjTRGbu4FG6BPCrL67E8Y2x2C-DrxMYDF9A,"Mozilla/5.0 (iPhone; CPU iPhone OS 14_8 like Mac OS X) AppleWebKit/605.1.15 (KHTML, like Gecko) Mobile/15E148 Instagram 270.0.0.13.83 (iPhone9,2; iOS 14_8; pt_BR; pt-BR; scale=2.61; 1080x1920; 445843881)",200
63,2023-02-18 17:31:21+00:00,189.96.231.102,Brazil,https://l.instagram.com/,"Mozilla/5.0 (iPhone; CPU iPhone OS 14_8 like Mac OS X) AppleWebKit/605.1.15 (KHTML, like Gecko) Mobile/15E148 Instagram 270.0.0.13.83 (iPhone9,2; iOS 14_8; pt_BR; pt-BR; scale=2.61; 1080x1920; 445843881)",200
64,2023-02-18 17:31:22+00:00,189.96.231.102,Brazil,http://clauro-website.s3-website-sa-east-1.amazonaws.com/?fbclid=PAAabalkAbcTzC63JBmXVmvwG1MjTRGbu4FG6BPCrL67E8Y2x2C-DrxMYDF9A,"Mozilla/5.0 (iPhone; CPU iPhone OS 14_8 like Mac OS X) AppleWebKit/605.1.15 (KHTML, like Gecko) Mobile/15E148 Instagram 270.0.0.13.83 (iPhone9,2; iOS 14_8; pt_BR; pt-BR; scale=2.61; 1080x1920; 445843881)",200
65,2023-02-21 18:23:57+00:00,207.230.120.84,Portugal,-,Go-http-client/1.1,403
66,2023-02-23 14:17:29+00:00,200.170.241.60,Brazil,-,"S3Console/0.4, aws-internal/3 aws-sdk-java/1.11.1030 Linux/5.10.162-124.675.amzn2int.x86_64 OpenJDK_64-Bit_Server_VM/25.352-b08 java/1.8.0_352 vendor/Oracle_Corporation cfg/retry-mode/standard",200
67,2023-02-23 14:17:29+00:00,200.170.241.60,Brazil,-,"S3Console/0.4, aws-internal/3 aws-sdk-java/1.11.1030 Linux/5.10.162-124.675.amzn2int.x86_64 OpenJDK_64-Bit_Server_VM/25.352-b08 java/1.8.0_352 vendor/Oracle_Corporation cfg/retry-mode/standard",200
68,2023-02-23 14:17:29+00:00,200.170.241.60,Brazil,-,"S3Console/0.4, aws-internal/3 aws-sdk-java/1.11.1030 Linux/5.10.162-124.675.amzn2int.x86_64 OpenJDK_64-Bit_Server_VM/25.352-b08 java/1.8.0_352 vendor/Oracle_Corporation cfg/retry-mode/standard",200
69,2023-02-23 14:17:28+00:00,200.170.241.60,Brazil,-,"S3Console/0.4, aws-internal/3 aws-sdk-java/1.11.1030 Linux/5.10.162-124.675.amzn2int.x86_64 OpenJDK_64-Bit_Server_VM/25.352-b08 java/1.8.0_352 vendor/Oracle_Corporation cfg/retry-mode/standard",200
70,2023-02-23 14:17:56+00:00,200.170.241.59,Brazil,http://clauro-website.s3-website-sa-east-1.amazonaws.com/,"Mozilla/5.0 (Windows NT 10.0; Win64; x64) AppleWebKit/537.36 (KHTML, like Gecko) Chrome/110.0.0.0 Safari/537.36",200
71,2023-02-23 14:17:56+00:00,200.170.241.59,Brazil,-,"Mozilla/5.0 (Windows NT 10.0; Win64; x64) AppleWebKit/537.36 (KHTML, like Gecko) Chrome/110.0.0.0 Safari/537.36",200
72,2023-02-23 14:17:56+00:00,200.170.241.59,Brazil,http://clauro-website.s3-website-sa-east-1.amazonaws.com/,"Mozilla/5.0 (Windows NT 10.0; Win64; x64) AppleWebKit/537.36 (KHTML, like Gecko) Chrome/110.0.0.0 Safari/537.36",200
73,2023-02-23 14:17:56+00:00,200.170.241.59,Brazil,http://clauro-website.s3-website-sa-east-1.amazonaws.com/,"Mozilla/5.0 (Windows NT 10.0; Win64; x64) AppleWebKit/537.36 (KHTML, like Gecko) Chrome/110.0.0.0 Safari/537.36",200
74,2023-02-23 14:17:28+00:00,200.170.241.60,Brazil,-,"S3Console/0.4, aws-internal/3 aws-sdk-java/1.11.1030 Linux/5.10.167-130.601.amzn2int.x86_64 OpenJDK_64-Bit_Server_VM/25.352-b08 java/1.8.0_352 vendor/Oracle_Corporation cfg/retry-mode/standard",200
75,2023-02-23 14:17:28+00:00,200.170.241.60,Brazil,-,"S3Console/0.4, aws-internal/3 aws-sdk-java/1.11.1030 Linux/5.10.167-130.601.amzn2int.x86_64 OpenJDK_64-Bit_Server_VM/25.352-b08 java/1.8.0_352 vendor/Oracle_Corporation cfg/retry-mode/standard",200
76,2023-02-23 14:17:28+00:00,200.170.241.60,Brazil,-,"S3Console/0.4, aws-internal/3 aws-sdk-java/1.11.1030 Linux/5.10.167-130.601.amzn2int.x86_64 OpenJDK_64-Bit_Server_VM/25.352-b08 java/1.8.0_352 vendor/Oracle_Corporation cfg/retry-mode/standard",200
77,2023-02-23 17:37:19+00:00,200.170.241.58,Brazil,http://clauro-website.s3-website-sa-east-1.amazonaws.com/,"Mozilla/5.0 (Windows NT 10.0; Win64; x64) AppleWebKit/537.36 (KHTML, like Gecko) Chrome/110.0.0.0 Safari/537.36",200
78,2023-02-23 17:37:19+00:00,200.170.241.58,Brazil,-,"Mozilla/5.0 (Windows NT 10.0; Win64; x64) AppleWebKit/537.36 (KHTML, like Gecko) Chrome/110.0.0.0 Safari/537.36",200
79,2023-02-23 17:37:19+00:00,200.170.241.58,Brazil,http://clauro-website.s3-website-sa-east-1.amazonaws.com/,"Mozilla/5.0 (Windows NT 10.0; Win64; x64) AppleWebKit/537.36 (KHTML, like Gecko) Chrome/110.0.0.0 Safari/537.36",200
80,2023-02-23 17:37:20+00:00,200.170.241.58,Brazil,http://clauro-website.s3-website-sa-east-1.amazonaws.com/,"Mozilla/5.0 (Windows NT 10.0; Win64; x64) AppleWebKit/537.36 (KHTML, like Gecko) Chrome/110.0.0.0 Safari/537.36",200
81,2023-02-23 20:38:16+00:00,200.170.241.60,Brazil,-,"Mozilla/5.0 (Windows NT 10.0; Win64; x64) AppleWebKit/537.36 (KHTML, like Gecko) Chrome/110.0.0.0 Safari/537.36",200
82,2023-02-23 20:38:20+00:00,200.170.241.60,Brazil,http://clauro-website.s3-website-sa-east-1.amazonaws.com/,"Mozilla/5.0 (Windows NT 10.0; Win64; x64) AppleWebKit/537.36 (KHTML, like Gecko) Chrome/110.0.0.0 Safari/537.36",200
83,2023-02-23 20:38:20+00:00,200.170.241.60,Brazil,http://clauro-website.s3-website-sa-east-1.amazonaws.com/,"Mozilla/5.0 (Windows NT 10.0; Win64; x64) AppleWebKit/537.36 (KHTML, like Gecko) Chrome/110.0.0.0 Safari/537.36",200
84,2023-02-23 20:38:20+00:00,200.170.241.60,Brazil,http://clauro-website.s3-website-sa-east-1.amazonaws.com/,"Mozilla/5.0 (Windows NT 10.0; Win64; x64) AppleWebKit/537.36 (KHTML, like Gecko) Chrome/110.0.0.0 Safari/537.36",200
85,2023-02-23 22:28:43+00:00,200.170.241.57,Brazil,http://clauro-website.s3-website-sa-east-1.amazonaws.com/,"Mozilla/5.0 (Linux; Android 12; moto g71 5G) AppleWebKit/537.36 (KHTML, like Gecko) Chrome/110.0.0.0 Mobile Safari/537.36",200
86,2023-02-23 22:28:42+00:00,200.170.241.57,Brazil,-,"Mozilla/5.0 (Linux; Android 12; moto g71 5G) AppleWebKit/537.36 (KHTML, like Gecko) Chrome/110.0.0.0 Mobile Safari/537.36",200
87,2023-02-23 22:28:43+00:00,200.170.241.57,Brazil,http://clauro-website.s3-website-sa-east-1.amazonaws.com/,"Mozilla/5.0 (Linux; Android 12; moto g71 5G) AppleWebKit/537.36 (KHTML, like Gecko) Chrome/110.0.0.0 Mobile Safari/537.36",200
88,2023-02-23 22:28:43+00:00,200.170.241.57,Brazil,http://clauro-website.s3-website-sa-east-1.amazonaws.com/,"Mozilla/5.0 (Linux; Android 12; moto g71 5G) AppleWebKit/537.36 (KHTML, like Gecko) Chrome/110.0.0.0 Mobile Safari/537.36",304
89,2023-02-24 11:59:55+00:00,200.170.241.56,Brazil,-,"Mozilla/5.0 (Windows NT 10.0; Win64; x64) AppleWebKit/537.36 (KHTML, like Gecko) Chrome/110.0.0.0 Safari/537.36",200
90,2023-02-24 11:59:56+00:00,200.170.241.56,Brazil,http://clauro-website.s3-website-sa-east-1.amazonaws.com/,"Mozilla/5.0 (Windows NT 10.0; Win64; x64) AppleWebKit/537.36 (KHTML, like Gecko) Chrome/110.0.0.0 Safari/537.36",200
91,2023-02-24 11:59:56+00:00,200.170.241.56,Brazil,http://clauro-website.s3-website-sa-east-1.amazonaws.com/,"Mozilla/5.0 (Windows NT 10.0; Win64; x64) AppleWebKit/537.36 (KHTML, like Gecko) Chrome/110.0.0.0 Safari/537.36",200
92,2023-02-24 11:53:27+00:00,34.75.220.53,United States of America,-,aws-cli/1.18.76 Python/3.7.6 Linux/5.4.109+ botocore/1.16.26,200
93,2023-02-24 11:59:56+00:00,200.170.241.56,Brazil,http://clauro-website.s3-website-sa-east-1.amazonaws.com/,"Mozilla/5.0 (Windows NT 10.0; Win64; x64) AppleWebKit/537.36 (KHTML, like Gecko) Chrome/110.0.0.0 Safari/537.36",200
94,2023-02-24 12:13:30+00:00,200.170.241.61,Brazil,-,"S3Console/0.4, aws-internal/3 aws-sdk-java/1.11.1030 Linux/5.10.165-126.735.amzn2int.x86_64 OpenJDK_64-Bit_Server_VM/25.352-b08 java/1.8.0_352 vendor/Oracle_Corporation cfg/retry-mode/standard",200
95,2023-02-24 12:13:31+00:00,200.170.241.61,Brazil,-,"S3Console/0.4, aws-internal/3 aws-sdk-java/1.11.1030 Linux/5.10.165-126.735.amzn2int.x86_64 OpenJDK_64-Bit_Server_VM/25.352-b08 java/1.8.0_352 vendor/Oracle_Corporation cfg/retry-mode/standard",200
96,2023-02-24 12:13:31+00:00,200.170.241.61,Brazil,-,"S3Console/0.4, aws-internal/3 aws-sdk-java/1.11.1030 Linux/5.10.165-126.735.amzn2int.x86_64 OpenJDK_64-Bit_Server_VM/25.352-b08 java/1.8.0_352 vendor/Oracle_Corporation cfg/retry-mode/standard",200
97,2023-02-24 12:13:31+00:00,200.170.241.61,Brazil,-,"S3Console/0.4, aws-internal/3 aws-sdk-java/1.11.1030 Linux/5.10.165-126.735.amzn2int.x86_64 OpenJDK_64-Bit_Server_VM/25.352-b08 java/1.8.0_352 vendor/Oracle_Corporation cfg/retry-mode/standard",200
98,2023-02-24 12:03:23+00:00,34.73.51.155,United States of America,-,aws-cli/1.18.76 Python/3.7.6 Linux/5.4.109+ botocore/1.16.26,200
99,2023-02-24 12:03:24+00:00,34.73.51.155,United States of America,-,aws-cli/1.18.76 Python/3.7.6 Linux/5.4.109+ botocore/1.16.26,200
100,2023-02-24 12:12:58+00:00,200.170.241.61,Brazil,-,"S3Console/0.4, aws-internal/3 aws-sdk-java/1.11.1030 Linux/5.10.162-124.675.amzn2int.x86_64 OpenJDK_64-Bit_Server_VM/25.352-b08 java/1.8.0_352 vendor/Oracle_Corporation cfg/retry-mode/standard",200
101,2023-02-24 12:12:58+00:00,200.170.241.61,Brazil,-,"S3Console/0.4, aws-internal/3 aws-sdk-java/1.11.1030 Linux/5.10.162-124.675.amzn2int.x86_64 OpenJDK_64-Bit_Server_VM/25.352-b08 java/1.8.0_352 vendor/Oracle_Corporation cfg/retry-mode/standard",200
102,2023-02-24 12:12:58+00:00,200.170.241.61,Brazil,-,"S3Console/0.4, aws-internal/3 aws-sdk-java/1.11.1030 Linux/5.10.162-124.675.amzn2int.x86_64 OpenJDK_64-Bit_Server_VM/25.352-b08 java/1.8.0_352 vendor/Oracle_Corporation cfg/retry-mode/standard",200
103,2023-02-24 12:12:57+00:00,200.170.241.61,Brazil,-,"S3Console/0.4, aws-internal/3 aws-sdk-java/1.11.1030 Linux/5.10.167-130.601.amzn2int.x86_64 OpenJDK_64-Bit_Server_VM/25.352-b08 java/1.8.0_352 vendor/Oracle_Corporation cfg/retry-mode/standard",200
104,2023-02-24 12:12:57+00:00,200.170.241.61,Brazil,-,"S3Console/0.4, aws-internal/3 aws-sdk-java/1.11.1030 Linux/5.10.167-130.601.amzn2int.x86_64 OpenJDK_64-Bit_Server_VM/25.352-b08 java/1.8.0_352 vendor/Oracle_Corporation cfg/retry-mode/standard",200
105,2023-02-24 12:12:42+00:00,200.170.241.61,Brazil,-,"S3Console/0.4, aws-internal/3 aws-sdk-java/1.11.1030 Linux/5.10.167-130.601.amzn2int.x86_64 OpenJDK_64-Bit_Server_VM/25.352-b08 java/1.8.0_352 vendor/Oracle_Corporation cfg/retry-mode/standard",200
106,2023-02-24 12:12:42+00:00,200.170.241.61,Brazil,-,"S3Console/0.4, aws-internal/3 aws-sdk-java/1.11.1030 Linux/5.10.167-130.601.amzn2int.x86_64 OpenJDK_64-Bit_Server_VM/25.352-b08 java/1.8.0_352 vendor/Oracle_Corporation cfg/retry-mode/standard",200
107,2023-02-24 12:12:42+00:00,200.170.241.61,Brazil,-,"S3Console/0.4, aws-internal/3 aws-sdk-java/1.11.1030 Linux/5.10.167-130.601.amzn2int.x86_64 OpenJDK_64-Bit_Server_VM/25.352-b08 java/1.8.0_352 vendor/Oracle_Corporation cfg/retry-mode/standard",200
108,2023-02-24 12:11:45+00:00,200.170.241.61,Brazil,-,"S3Console/0.4, aws-internal/3 aws-sdk-java/1.11.1030 Linux/5.10.167-130.601.amzn2int.x86_64 OpenJDK_64-Bit_Server_VM/25.352-b08 java/1.8.0_352 vendor/Oracle_Corporation cfg/retry-mode/standard",200
109,2023-02-24 12:14:21+00:00,200.170.241.61,Brazil,-,"S3Console/0.4, aws-internal/3 aws-sdk-java/1.11.1030 Linux/5.10.165-126.735.amzn2int.x86_64 OpenJDK_64-Bit_Server_VM/25.352-b08 java/1.8.0_352 vendor/Oracle_Corporation cfg/retry-mode/standard",200
110,2023-02-24 12:14:21+00:00,200.170.241.61,Brazil,-,"S3Console/0.4, aws-internal/3 aws-sdk-java/1.11.1030 Linux/5.10.165-126.735.amzn2int.x86_64 OpenJDK_64-Bit_Server_VM/25.352-b08 java/1.8.0_352 vendor/Oracle_Corporation cfg/retry-mode/standard",200
111,2023-02-24 12:14:21+00:00,200.170.241.61,Brazil,-,"S3Console/0.4, aws-internal/3 aws-sdk-java/1.11.1030 Linux/5.10.165-126.735.amzn2int.x86_64 OpenJDK_64-Bit_Server_VM/25.352-b08 java/1.8.0_352 vendor/Oracle_Corporation cfg/retry-mode/standard",200
112,2023-02-24 12:12:41+00:00,200.170.241.61,Brazil,-,"S3Console/0.4, aws-internal/3 aws-sdk-java/1.11.1030 Linux/5.10.162-124.675.amzn2int.x86_64 OpenJDK_64-Bit_Server_VM/25.352-b08 java/1.8.0_352 vendor/Oracle_Corporation cfg/retry-mode/standard",200
113,2023-02-24 12:03:36+00:00,200.170.241.56,Brazil,-,"Mozilla/5.0 (Windows NT 10.0; Win64; x64) AppleWebKit/537.36 (KHTML, like Gecko) Chrome/110.0.0.0 Safari/537.36",200
114,2023-02-24 12:11:46+00:00,200.170.241.61,Brazil,-,"S3Console/0.4, aws-internal/3 aws-sdk-java/1.11.1030 Linux/5.10.165-126.735.amzn2int.x86_64 OpenJDK_64-Bit_Server_VM/25.352-b08 java/1.8.0_352 vendor/Oracle_Corporation cfg/retry-mode/standard",200
115,2023-02-24 12:11:46+00:00,200.170.241.61,Brazil,-,"S3Console/0.4, aws-internal/3 aws-sdk-java/1.11.1030 Linux/5.10.165-126.735.amzn2int.x86_64 OpenJDK_64-Bit_Server_VM/25.352-b08 java/1.8.0_352 vendor/Oracle_Corporation cfg/retry-mode/standard",200
116,2023-02-24 12:11:46+00:00,200.170.241.61,Brazil,-,"S3Console/0.4, aws-internal/3 aws-sdk-java/1.11.1030 Linux/5.10.165-126.735.amzn2int.x86_64 OpenJDK_64-Bit_Server_VM/25.352-b08 java/1.8.0_352 vendor/Oracle_Corporation cfg/retry-mode/standard",200
117,2023-02-24 12:11:46+00:00,200.170.241.61,Brazil,-,"S3Console/0.4, aws-internal/3 aws-sdk-java/1.11.1030 Linux/5.10.162-124.675.amzn2int.x86_64 OpenJDK_64-Bit_Server_VM/25.352-b08 java/1.8.0_352 vendor/Oracle_Corporation cfg/retry-mode/standard",200
118,2023-02-24 12:11:46+00:00,200.170.241.61,Brazil,-,"S3Console/0.4, aws-internal/3 aws-sdk-java/1.11.1030 Linux/5.10.162-124.675.amzn2int.x86_64 OpenJDK_64-Bit_Server_VM/25.352-b08 java/1.8.0_352 vendor/Oracle_Corporation cfg/retry-mode/standard",200
119,2023-02-24 12:11:46+00:00,200.170.241.61,Brazil,-,"S3Console/0.4, aws-internal/3 aws-sdk-java/1.11.1030 Linux/5.10.162-124.675.amzn2int.x86_64 OpenJDK_64-Bit_Server_VM/25.352-b08 java/1.8.0_352 vendor/Oracle_Corporation cfg/retry-mode/standard",200
120,2023-02-24 12:12:42+00:00,200.170.241.61,Brazil,-,"S3Console/0.4, aws-internal/3 aws-sdk-java/1.11.1030 Linux/5.10.167-130.601.amzn2int.x86_64 OpenJDK_64-Bit_Server_VM/25.352-b08 java/1.8.0_352 vendor/Oracle_Corporation cfg/retry-mode/standard",200
121,2023-02-24 12:12:42+00:00,200.170.241.61,Brazil,-,"S3Console/0.4, aws-internal/3 aws-sdk-java/1.11.1030 Linux/5.10.167-130.601.amzn2int.x86_64 OpenJDK_64-Bit_Server_VM/25.352-b08 java/1.8.0_352 vendor/Oracle_Corporation cfg/retry-mode/standard",200
122,2023-02-24 12:12:42+00:00,200.170.241.61,Brazil,-,"S3Console/0.4, aws-internal/3 aws-sdk-java/1.11.1030 Linux/5.10.167-130.601.amzn2int.x86_64 OpenJDK_64-Bit_Server_VM/25.352-b08 java/1.8.0_352 vendor/Oracle_Corporation cfg/retry-mode/standard",200
123,2023-02-24 12:14:21+00:00,200.170.241.61,Brazil,-,"S3Console/0.4, aws-internal/3 aws-sdk-java/1.11.1030 Linux/5.10.165-126.735.amzn2int.x86_64 OpenJDK_64-Bit_Server_VM/25.352-b08 java/1.8.0_352 vendor/Oracle_Corporation cfg/retry-mode/standard",200
124,2023-02-24 12:14:21+00:00,200.170.241.61,Brazil,-,"S3Console/0.4, aws-internal/3 aws-sdk-java/1.11.1030 Linux/5.10.165-126.735.amzn2int.x86_64 OpenJDK_64-Bit_Server_VM/25.352-b08 java/1.8.0_352 vendor/Oracle_Corporation cfg/retry-mode/standard",200
125,2023-02-24 12:14:21+00:00,200.170.241.61,Brazil,-,"S3Console/0.4, aws-internal/3 aws-sdk-java/1.11.1030 Linux/5.10.165-126.735.amzn2int.x86_64 OpenJDK_64-Bit_Server_VM/25.352-b08 java/1.8.0_352 vendor/Oracle_Corporation cfg/retry-mode/standard",200
126,2023-02-24 16:06:17+00:00,35.237.201.141,United States of America,-,aws-cli/1.18.76 Python/3.7.6 Linux/5.4.109+ botocore/1.16.26,200
127,2023-02-24 16:06:17+00:00,35.237.201.141,United States of America,-,aws-cli/1.18.76 Python/3.7.6 Linux/5.4.109+ botocore/1.16.26,200
128,2023-02-24 16:05:09+00:00,34.118.250.27,United States of America,-,aws-cli/1.18.76 Python/3.7.6 Linux/5.4.109+ botocore/1.16.26,200
129,2023-02-24 16:08:10+00:00,200.170.241.56,Brazil,-,"Mozilla/5.0 (Windows NT 10.0; Win64; x64) AppleWebKit/537.36 (KHTML, like Gecko) Chrome/110.0.0.0 Safari/537.36",200
130,2023-02-24 16:02:09+00:00,66.102.6.214,United States of America,-,"Mozilla/5.0 (Linux; Android 6.0.1; Nexus 5X Build/MMB29P; Google-AdWords-Express) AppleWebKit/[WEBKIT_VERSION] (KHTML, like Gecko) Chrome/[CHROME_VERSION] Mobile Safari/[WEBKIT_VERSION]",200
131,2023-02-25 18:53:27+00:00,91.132.38.234,Denmark,-,Go-http-client/1.1,403
132,2023-02-25 22:55:28+00:00,103.225.130.40,Costa Rica,-,Go-http-client/1.1,403
133,2023-02-26 21:04:26+00:00,200.170.241.59,Brazil,http://clauro-website.s3-website-sa-east-1.amazonaws.com/,"Mozilla/5.0 (Windows NT 10.0; Win64; x64) AppleWebKit/537.36 (KHTML, like Gecko) Chrome/110.0.0.0 Safari/537.36",304
134,2023-02-26 21:03:42+00:00,66.102.6.211,United States of America,-,"Mozilla/5.0 (Linux; Android 6.0.1; Nexus 5X Build/MMB29P; Google-AdWords-Express) AppleWebKit/[WEBKIT_VERSION] (KHTML, like Gecko) Chrome/[CHROME_VERSION] Mobile Safari/[WEBKIT_VERSION]",200
135,2023-02-26 21:06:04+00:00,200.170.241.61,Brazil,-,"S3Console/0.4, aws-internal/3 aws-sdk-java/1.11.1030 Linux/5.10.162-124.675.amzn2int.x86_64 OpenJDK_64-Bit_Server_VM/25.352-b08 java/1.8.0_352 vendor/Oracle_Corporation cfg/retry-mode/standard",200
136,2023-02-26 21:06:04+00:00,200.170.241.61,Brazil,-,"S3Console/0.4, aws-internal/3 aws-sdk-java/1.11.1030 Linux/5.10.162-124.675.amzn2int.x86_64 OpenJDK_64-Bit_Server_VM/25.352-b08 java/1.8.0_352 vendor/Oracle_Corporation cfg/retry-mode/standard",200
137,2023-02-26 21:06:04+00:00,200.170.241.61,Brazil,-,"S3Console/0.4, aws-internal/3 aws-sdk-java/1.11.1030 Linux/5.10.162-124.675.amzn2int.x86_64 OpenJDK_64-Bit_Server_VM/25.352-b08 java/1.8.0_352 vendor/Oracle_Corporation cfg/retry-mode/standard",200
138,2023-02-26 21:06:04+00:00,200.170.241.61,Brazil,-,"S3Console/0.4, aws-internal/3 aws-sdk-java/1.11.1030 Linux/5.10.167-130.601.amzn2int.x86_64 OpenJDK_64-Bit_Server_VM/25.352-b08 java/1.8.0_352 vendor/Oracle_Corporation cfg/retry-mode/standard",200
139,2023-02-26 21:06:04+00:00,200.170.241.61,Brazil,-,"S3Console/0.4, aws-internal/3 aws-sdk-java/1.11.1030 Linux/5.10.167-130.601.amzn2int.x86_64 OpenJDK_64-Bit_Server_VM/25.352-b08 java/1.8.0_352 vendor/Oracle_Corporation cfg/retry-mode/standard",200
140,2023-02-26 21:06:04+00:00,200.170.241.61,Brazil,-,"S3Console/0.4, aws-internal/3 aws-sdk-java/1.11.1030 Linux/5.10.167-130.601.amzn2int.x86_64 OpenJDK_64-Bit_Server_VM/25.352-b08 java/1.8.0_352 vendor/Oracle_Corporation cfg/retry-mode/standard",200
141,2023-02-26 21:04:26+00:00,200.170.241.59,Brazil,http://clauro-website.s3-website-sa-east-1.amazonaws.com/,"Mozilla/5.0 (Windows NT 10.0; Win64; x64) AppleWebKit/537.36 (KHTML, like Gecko) Chrome/110.0.0.0 Safari/537.36",304
142,2023-02-26 21:04:26+00:00,200.170.241.59,Brazil,http://clauro-website.s3-website-sa-east-1.amazonaws.com/,"Mozilla/5.0 (Windows NT 10.0; Win64; x64) AppleWebKit/537.36 (KHTML, like Gecko) Chrome/110.0.0.0 Safari/537.36",304
143,2023-02-26 21:04:26+00:00,200.170.241.59,Brazil,-,"Mozilla/5.0 (Windows NT 10.0; Win64; x64) AppleWebKit/537.36 (KHTML, like Gecko) Chrome/110.0.0.0 Safari/537.36",304
144,2023-02-26 21:06:03+00:00,200.170.241.61,Brazil,-,"S3Console/0.4, aws-internal/3 aws-sdk-java/1.11.1030 Linux/5.10.165-126.735.amzn2int.x86_64 OpenJDK_64-Bit_Server_VM/25.352-b08 java/1.8.0_352 vendor/Oracle_Corporation cfg/retry-mode/standard",200
145,2023-02-27 13:02:19+00:00,200.170.241.60,Brazil,-,"Mozilla/5.0 (Windows NT 10.0; Win64; x64) AppleWebKit/537.36 (KHTML, like Gecko) Chrome/110.0.0.0 Safari/537.36",304
146,2023-02-27 13:03:51+00:00,34.23.37.177,United States of America,-,Mozilla/4.0 (compatible; MSIE 4.01; Windows CE; PPC),200
147,2023-02-27 13:03:11+00:00,34.23.37.177,United States of America,http://clauro-website.s3-website-sa-east-1.amazonaws.com/,"Mozilla/5.0 (Windows NT 10.0; Win64; x64) AppleWebKit/537.36 (KHTML, like Gecko) Chrome/99.0.4844.0 Safari/537.36",200
148,2023-02-27 13:02:31+00:00,34.23.37.177,United States of America,http://clauro-website.s3-website-sa-east-1.amazonaws.com/,"Mozilla/5.0 (Windows NT 10.0; Win64; x64) AppleWebKit/537.36 (KHTML, like Gecko) Chrome/99.0.4844.0 Safari/537.36",200
149,2023-02-27 13:02:31+00:00,34.23.37.177,United States of America,-,"Mozilla/5.0 (Windows NT 10.0; Win64; x64) AppleWebKit/537.36 (KHTML, like Gecko) Chrome/99.0.4844.0 Safari/537.36",200
150,2023-02-27 13:03:11+00:00,34.23.37.177,United States of America,http://clauro-website.s3-website-sa-east-1.amazonaws.com/,"Mozilla/5.0 (Windows NT 10.0; Win64; x64) AppleWebKit/537.36 (KHTML, like Gecko) Chrome/99.0.4844.0 Safari/537.36",200
151,2023-02-27 13:03:51+00:00,34.23.37.177,United States of America,-,Mozilla/5.0 (Windows; U; Windows NT 5.1; en-US; rv:1.9.0.13) Gecko/2009073022 Firefox/3.0.13 (.NET CLR 3.5.30729) FBSMTWB,200
152,2023-03-02 01:02:24+00:00,37.61.226.58,Panama,-,Go-http-client/1.1,403
153,2023-03-05 01:44:23+00:00,177.73.110.50,Brazil,http://clauro-website.s3-website-sa-east-1.amazonaws.com/,"Mozilla/5.0 (Linux; Android 12; moto g71 5G) AppleWebKit/537.36 (KHTML, like Gecko) Chrome/110.0.0.0 Mobile Safari/537.36",200
154,2023-03-05 01:41:19+00:00,177.73.110.50,Brazil,-,"Mozilla/5.0 (Windows NT 10.0; Win64; x64) AppleWebKit/537.36 (KHTML, like Gecko) Chrome/110.0.0.0 Safari/537.36",200
155,2023-03-05 01:41:20+00:00,177.73.110.50,Brazil,http://clauro-website.s3-website-sa-east-1.amazonaws.com/,"Mozilla/5.0 (Windows NT 10.0; Win64; x64) AppleWebKit/537.36 (KHTML, like Gecko) Chrome/110.0.0.0 Safari/537.36",200
156,2023-03-05 01:41:20+00:00,177.73.110.50,Brazil,http://clauro-website.s3-website-sa-east-1.amazonaws.com/,"Mozilla/5.0 (Windows NT 10.0; Win64; x64) AppleWebKit/537.36 (KHTML, like Gecko) Chrome/110.0.0.0 Safari/537.36",200
157,2023-03-05 01:41:34+00:00,34.73.158.173,United States of America,-,aws-cli/1.18.76 Python/3.7.6 Linux/5.4.109+ botocore/1.16.26,200
158,2023-03-05 01:41:34+00:00,34.73.158.173,United States of America,-,aws-cli/1.18.76 Python/3.7.6 Linux/5.4.109+ botocore/1.16.26,200
159,2023-03-05 01:41:20+00:00,177.73.110.50,Brazil,http://clauro-website.s3-website-sa-east-1.amazonaws.com/,"Mozilla/5.0 (Windows NT 10.0; Win64; x64) AppleWebKit/537.36 (KHTML, like Gecko) Chrome/110.0.0.0 Safari/537.36",200
160,2023-03-05 01:41:24+00:00,177.73.110.50,Brazil,-,"Mozilla/5.0 (Windows NT 10.0; Win64; x64) AppleWebKit/537.36 (KHTML, like Gecko) Chrome/110.0.0.0 Safari/537.36",304
161,2023-03-05 01:41:27+00:00,177.73.110.50,Brazil,-,"Mozilla/5.0 (Windows NT 10.0; Win64; x64) AppleWebKit/537.36 (KHTML, like Gecko) Chrome/110.0.0.0 Safari/537.36",304
162,2023-03-05 01:41:31+00:00,177.73.110.50,Brazil,-,"Mozilla/5.0 (Windows NT 10.0; Win64; x64) AppleWebKit/537.36 (KHTML, like Gecko) Chrome/110.0.0.0 Safari/537.36",304
163,2023-03-05 01:41:34+00:00,34.73.158.173,United States of America,-,aws-cli/1.18.76 Python/3.7.6 Linux/5.4.109+ botocore/1.16.26,200
164,2023-03-05 01:41:39+00:00,177.73.110.50,Brazil,http://clauro-website.s3-website-sa-east-1.amazonaws.com/,"Mozilla/5.0 (Windows NT 10.0; Win64; x64) AppleWebKit/537.36 (KHTML, like Gecko) Chrome/110.0.0.0 Safari/537.36",200
165,2023-03-05 01:41:39+00:00,177.73.110.50,Brazil,-,"Mozilla/5.0 (Windows NT 10.0; Win64; x64) AppleWebKit/537.36 (KHTML, like Gecko) Chrome/110.0.0.0 Safari/537.36",200
166,2023-03-05 01:41:34+00:00,34.73.158.173,United States of America,-,aws-cli/1.18.76 Python/3.7.6 Linux/5.4.109+ botocore/1.16.26,200
167,2023-03-05 01:44:22+00:00,177.73.110.50,Brazil,-,"Mozilla/5.0 (Linux; Android 12; moto g71 5G) AppleWebKit/537.36 (KHTML, like Gecko) Chrome/110.0.0.0 Mobile Safari/537.36",200
168,2023-03-05 01:44:23+00:00,177.73.110.50,Brazil,http://clauro-website.s3-website-sa-east-1.amazonaws.com/,"Mozilla/5.0 (Linux; Android 12; moto g71 5G) AppleWebKit/537.36 (KHTML, like Gecko) Chrome/110.0.0.0 Mobile Safari/537.36",200
169,2023-03-05 01:44:23+00:00,177.73.110.50,Brazil,http://clauro-website.s3-website-sa-east-1.amazonaws.com/,"Mozilla/5.0 (Linux; Android 12; moto g71 5G) AppleWebKit/537.36 (KHTML, like Gecko) Chrome/110.0.0.0 Mobile Safari/537.36",200
170,2023-03-05 01:44:23+00:00,177.73.110.50,Brazil,http://clauro-website.s3-website-sa-east-1.amazonaws.com/,"Mozilla/5.0 (Linux; Android 12; moto g71 5G) AppleWebKit/537.36 (KHTML, like Gecko) Chrome/110.0.0.0 Mobile Safari/537.36",200
171,2023-03-05 09:54:14+00:00,177.73.110.50,Brazil,http://clauro-website.s3-website-sa-east-1.amazonaws.com/,"Mozilla/5.0 (Linux; Android 12; moto g71 5G) AppleWebKit/537.36 (KHTML, like Gecko) Chrome/110.0.0.0 Mobile Safari/537.36",304
172,2023-03-05 09:54:14+00:00,177.73.110.50,Brazil,http://clauro-website.s3-website-sa-east-1.amazonaws.com/,"Mozilla/5.0 (Linux; Android 12; moto g71 5G) AppleWebKit/537.36 (KHTML, like Gecko) Chrome/110.0.0.0 Mobile Safari/537.36",304
173,2023-03-05 18:22:59+00:00,207.230.124.213,Luxembourg,-,Go-http-client/1.1,403
174,2023-03-05 19:49:29+00:00,177.73.110.50,Brazil,http://clauro-website.s3-website-sa-east-1.amazonaws.com/,"Mozilla/5.0 (Linux; Android 12; moto g71 5G) AppleWebKit/537.36 (KHTML, like Gecko) Chrome/110.0.0.0 Mobile Safari/537.36",304
175,2023-03-05 19:49:29+00:00,177.73.110.50,Brazil,http://clauro-website.s3-website-sa-east-1.amazonaws.com/,"Mozilla/5.0 (Linux; Android 12; moto g71 5G) AppleWebKit/537.36 (KHTML, like Gecko) Chrome/110.0.0.0 Mobile Safari/537.36",304
176,2023-03-05 20:26:23+00:00,45.143.174.30,Slovakia,-,Go-http-client/1.1,403
177,2023-03-05 20:26:27+00:00,109.70.100.34,Austria,-,aws-sdk-go-v2/1.17.3 os/linux lang/go/1.17.6 md/GOOS/linux md/GOARCH/amd64 api/s3/1.29.6,403
178,2023-03-05 20:26:23+00:00,95.216.117.41,Finland,-,aws-sdk-go/1.44.171 (go1.17.6; linux; amd64),301
179,2023-03-07 16:04:39+00:00,31.18.248.108,Germany,http://clauro-website.s3-website-sa-east-1.amazonaws.com/,"Mozilla/5.0 (Windows NT 10.0; Win64; x64) AppleWebKit/537.36 (KHTML, like Gecko) Chrome/110.0.0.0 Safari/537.36",200
180,2023-03-07 16:04:40+00:00,31.18.248.108,Germany,http://clauro-website.s3-website-sa-east-1.amazonaws.com/,"Mozilla/5.0 (Windows NT 10.0; Win64; x64) AppleWebKit/537.36 (KHTML, like Gecko) Chrome/110.0.0.0 Safari/537.36",200
181,2023-03-07 16:04:40+00:00,31.18.248.108,Germany,http://clauro-website.s3-website-sa-east-1.amazonaws.com/,"Mozilla/5.0 (Windows NT 10.0; Win64; x64) AppleWebKit/537.36 (KHTML, like Gecko) Chrome/110.0.0.0 Safari/537.36",200
182,2023-03-07 16:04:39+00:00,31.18.248.108,Germany,-,"Mozilla/5.0 (Windows NT 10.0; Win64; x64) AppleWebKit/537.36 (KHTML, like Gecko) Chrome/110.0.0.0 Safari/537.36",200
183,2023-03-07 16:04:40+00:00,31.18.248.108,Germany,http://clauro-website.s3-website-sa-east-1.amazonaws.com/,"Mozilla/5.0 (Windows NT 10.0; Win64; x64) AppleWebKit/537.36 (KHTML, like Gecko) Chrome/110.0.0.0 Safari/537.36",200
184,2023-03-07 17:47:21+00:00,200.170.241.62,Brazil,http://clauro-website.s3-website-sa-east-1.amazonaws.com/,"Mozilla/5.0 (Windows NT 10.0; Win64; x64) AppleWebKit/537.36 (KHTML, like Gecko) Chrome/110.0.0.0 Safari/537.36",200
185,2023-03-07 17:47:21+00:00,200.170.241.62,Brazil,http://clauro-website.s3-website-sa-east-1.amazonaws.com/,"Mozilla/5.0 (Windows NT 10.0; Win64; x64) AppleWebKit/537.36 (KHTML, like Gecko) Chrome/110.0.0.0 Safari/537.36",200
186,2023-03-07 17:47:20+00:00,200.170.241.62,Brazil,-,"Mozilla/5.0 (Windows NT 10.0; Win64; x64) AppleWebKit/537.36 (KHTML, like Gecko) Chrome/110.0.0.0 Safari/537.36",200
187,2023-03-07 17:47:21+00:00,200.170.241.62,Brazil,http://clauro-website.s3-website-sa-east-1.amazonaws.com/,"Mozilla/5.0 (Windows NT 10.0; Win64; x64) AppleWebKit/537.36 (KHTML, like Gecko) Chrome/110.0.0.0 Safari/537.36",200
188,2023-03-07 17:47:21+00:00,200.170.241.62,Brazil,http://clauro-website.s3-website-sa-east-1.amazonaws.com/,"Mozilla/5.0 (Windows NT 10.0; Win64; x64) AppleWebKit/537.36 (KHTML, like Gecko) Chrome/110.0.0.0 Safari/537.36",200
189,2023-03-07 22:17:07+00:00,200.170.241.63,Brazil,-,"Mozilla/5.0 (Windows NT 10.0; Win64; x64) AppleWebKit/537.36 (KHTML, like Gecko) Chrome/110.0.0.0 Safari/537.36",200
190,2023-03-07 22:16:36+00:00,34.139.158.206,United States of America,-,aws-cli/1.18.76 Python/3.7.6 Linux/5.4.109+ botocore/1.16.26,200
191,2023-03-07 22:16:35+00:00,34.139.158.206,United States of America,-,aws-cli/1.18.76 Python/3.7.6 Linux/5.4.109+ botocore/1.16.26,200
192,2023-03-07 22:16:35+00:00,34.139.158.206,United States of America,-,aws-cli/1.18.76 Python/3.7.6 Linux/5.4.109+ botocore/1.16.26,200
193,2023-03-07 22:16:36+00:00,34.139.158.206,United States of America,-,aws-cli/1.18.76 Python/3.7.6 Linux/5.4.109+ botocore/1.16.26,204
194,2023-03-08 10:10:02+00:00,5.180.61.72,Germany,http://clauro-website.s3-website-sa-east-1.amazonaws.com/,"Mozilla/5.0 (Windows NT 10.0; Win64; x64) AppleWebKit/537.36 (KHTML, like Gecko) Chrome/110.0.0.0 Safari/537.36 Edg/110.0.1587.63",200
195,2023-03-08 10:10:00+00:00,5.180.61.72,Germany,-,"Mozilla/5.0 (Windows NT 10.0; Win64; x64) AppleWebKit/537.36 (KHTML, like Gecko) Chrome/110.0.0.0 Safari/537.36 Edg/110.0.1587.63",200
196,2023-03-08 10:10:01+00:00,5.180.61.72,Germany,http://clauro-website.s3-website-sa-east-1.amazonaws.com/,"Mozilla/5.0 (Windows NT 10.0; Win64; x64) AppleWebKit/537.36 (KHTML, like Gecko) Chrome/110.0.0.0 Safari/537.36 Edg/110.0.1587.63",200
197,2023-03-08 10:10:02+00:00,5.180.61.72,Germany,http://clauro-website.s3-website-sa-east-1.amazonaws.com/,"Mozilla/5.0 (Windows NT 10.0; Win64; x64) AppleWebKit/537.36 (KHTML, like Gecko) Chrome/110.0.0.0 Safari/537.36 Edg/110.0.1587.63",200
198,2023-03-08 11:56:58+00:00,200.170.241.62,Brazil,-,"Mozilla/5.0 (Windows NT 10.0; Win64; x64) AppleWebKit/537.36 (KHTML, like Gecko) Chrome/110.0.0.0 Safari/537.36",304
199,2023-03-08 11:56:59+00:00,200.170.241.62,Brazil,http://clauro-website.s3-website-sa-east-1.amazonaws.com/,"Mozilla/5.0 (Windows NT 10.0; Win64; x64) AppleWebKit/537.36 (KHTML, like Gecko) Chrome/110.0.0.0 Safari/537.36",200
200,2023-03-08 12:47:38+00:00,34.23.58.217,United States of America,-,aws-cli/1.18.76 Python/3.7.6 Linux/5.4.109+ botocore/1.16.26,200
201,2023-03-08 12:47:38+00:00,34.23.58.217,United States of America,-,aws-cli/1.18.76 Python/3.7.6 Linux/5.4.109+ botocore/1.16.26,200
202,2023-03-08 12:47:37+00:00,34.23.58.217,United States of America,-,aws-cli/1.18.76 Python/3.7.6 Linux/5.4.109+ botocore/1.16.26,200
203,2023-03-08 12:47:37+00:00,34.23.58.217,United States of America,-,aws-cli/1.18.76 Python/3.7.6 Linux/5.4.109+ botocore/1.16.26,200
204,2023-03-08 12:13:59+00:00,200.170.241.61,Brazil,-,"S3Console/0.4, aws-internal/3 aws-sdk-java/1.11.1030 Linux/5.4.231-145.341.amzn2int.x86_64 OpenJDK_64-Bit_Server_VM/25.352-b08 java/1.8.0_352 vendor/Oracle_Corporation cfg/retry-mode/standard",200
205,2023-03-08 12:47:38+00:00,34.23.58.217,United States of America,-,aws-cli/1.18.76 Python/3.7.6 Linux/5.4.109+ botocore/1.16.26,200
206,2023-03-08 12:47:38+00:00,34.23.58.217,United States of America,-,aws-cli/1.18.76 Python/3.7.6 Linux/5.4.109+ botocore/1.16.26,200
207,2023-03-08 12:19:50+00:00,200.170.241.60,Brazil,-,aws-cli/1.22.34 Python/3.10.6 Linux/5.15.79.1-microsoft-standard-WSL2 botocore/1.23.34,200
208,2023-03-08 12:18:42+00:00,200.170.241.60,Brazil,-,aws-cli/1.22.34 Python/3.10.6 Linux/5.15.79.1-microsoft-standard-WSL2 botocore/1.23.34,200
209,2023-03-08 12:22:13+00:00,200.170.241.60,Brazil,-,aws-cli/1.22.34 Python/3.10.6 Linux/5.15.79.1-microsoft-standard-WSL2 botocore/1.23.34,200
210,2023-03-08 12:14:00+00:00,200.170.241.61,Brazil,-,"S3Console/0.4, aws-internal/3 aws-sdk-java/1.11.1030 Linux/5.4.231-145.341.amzn2int.x86_64 OpenJDK_64-Bit_Server_VM/25.352-b08 java/1.8.0_352 vendor/Oracle_Corporation cfg/retry-mode/standard",200
211,2023-03-08 12:14:00+00:00,200.170.241.61,Brazil,-,"S3Console/0.4, aws-internal/3 aws-sdk-java/1.11.1030 Linux/5.4.231-145.341.amzn2int.x86_64 OpenJDK_64-Bit_Server_VM/25.352-b08 java/1.8.0_352 vendor/Oracle_Corporation cfg/retry-mode/standard",200
212,2023-03-08 12:14:00+00:00,200.170.241.61,Brazil,-,"S3Console/0.4, aws-internal/3 aws-sdk-java/1.11.1030 Linux/5.4.231-145.341.amzn2int.x86_64 OpenJDK_64-Bit_Server_VM/25.352-b08 java/1.8.0_352 vendor/Oracle_Corporation cfg/retry-mode/standard",200
213,2023-03-08 12:13:59+00:00,200.170.241.61,Brazil,-,"S3Console/0.4, aws-internal/3 aws-sdk-java/1.11.1030 Linux/5.4.231-145.341.amzn2int.x86_64 OpenJDK_64-Bit_Server_VM/25.352-b08 java/1.8.0_352 vendor/Oracle_Corporation cfg/retry-mode/standard",200
214,2023-03-08 12:14:00+00:00,200.170.241.61,Brazil,-,"S3Console/0.4, aws-internal/3 aws-sdk-java/1.11.1030 Linux/5.4.231-145.341.amzn2int.x86_64 OpenJDK_64-Bit_Server_VM/25.352-b08 java/1.8.0_352 vendor/Oracle_Corporation cfg/retry-mode/standard",200
215,2023-03-08 12:14:00+00:00,200.170.241.61,Brazil,-,"S3Console/0.4, aws-internal/3 aws-sdk-java/1.11.1030 Linux/5.4.231-145.341.amzn2int.x86_64 OpenJDK_64-Bit_Server_VM/25.352-b08 java/1.8.0_352 vendor/Oracle_Corporation cfg/retry-mode/standard",200
216,2023-03-08 12:47:38+00:00,34.23.58.217,United States of America,-,aws-cli/1.18.76 Python/3.7.6 Linux/5.4.109+ botocore/1.16.26,200
217,2023-03-08 15:28:04+00:00,35.229.44.224,United States of America,-,aws-cli/1.18.76 Python/3.7.6 Linux/5.4.109+ botocore/1.16.26,200
218,2023-03-08 15:28:44+00:00,35.237.192.99,United States of America,-,aws-cli/1.18.76 Python/3.7.6 Linux/5.4.109+ botocore/1.16.26,200
219,2023-03-08 15:28:44+00:00,35.237.192.99,United States of America,-,aws-cli/1.18.76 Python/3.7.6 Linux/5.4.109+ botocore/1.16.26,204
220,2023-03-08 15:28:44+00:00,35.237.192.99,United States of America,-,aws-cli/1.18.76 Python/3.7.6 Linux/5.4.109+ botocore/1.16.26,204
221,2023-03-08 15:28:04+00:00,35.229.44.224,United States of America,-,aws-cli/1.18.76 Python/3.7.6 Linux/5.4.109+ botocore/1.16.26,200
222,2023-03-08 15:28:04+00:00,35.229.44.224,United States of America,-,aws-cli/1.18.76 Python/3.7.6 Linux/5.4.109+ botocore/1.16.26,200
223,2023-03-08 15:28:44+00:00,35.237.192.99,United States of America,-,aws-cli/1.18.76 Python/3.7.6 Linux/5.4.109+ botocore/1.16.26,204
224,2023-03-08 15:28:44+00:00,35.237.192.99,United States of America,-,aws-cli/1.18.76 Python/3.7.6 Linux/5.4.109+ botocore/1.16.26,200
225,2023-03-08 15:28:44+00:00,35.237.192.99,United States of America,-,aws-cli/1.18.76 Python/3.7.6 Linux/5.4.109+ botocore/1.16.26,204
226,2023-03-08 15:28:44+00:00,35.237.192.99,United States of America,-,aws-cli/1.18.76 Python/3.7.6 Linux/5.4.109+ botocore/1.16.26,200
227,2023-03-08 15:28:44+00:00,35.237.192.99,United States of America,-,aws-cli/1.18.76 Python/3.7.6 Linux/5.4.109+ botocore/1.16.26,200
228,2023-03-08 15:28:43+00:00,35.237.192.99,United States of America,-,aws-cli/1.18.76 Python/3.7.6 Linux/5.4.109+ botocore/1.16.26,200
229,2023-03-08 15:28:43+00:00,35.237.192.99,United States of America,-,aws-cli/1.18.76 Python/3.7.6 Linux/5.4.109+ botocore/1.16.26,200
230,2023-03-08 15:28:44+00:00,35.237.192.99,United States of America,-,aws-cli/1.18.76 Python/3.7.6 Linux/5.4.109+ botocore/1.16.26,200
231,2023-03-08 15:28:04+00:00,35.229.44.224,United States of America,-,aws-cli/1.18.76 Python/3.7.6 Linux/5.4.109+ botocore/1.16.26,200
232,2023-03-08 15:28:04+00:00,35.229.44.224,United States of America,-,aws-cli/1.18.76 Python/3.7.6 Linux/5.4.109+ botocore/1.16.26,200
233,2023-03-08 15:28:44+00:00,35.237.192.99,United States of America,-,aws-cli/1.18.76 Python/3.7.6 Linux/5.4.109+ botocore/1.16.26,204
234,2023-03-08 15:28:44+00:00,35.237.192.99,United States of America,-,aws-cli/1.18.76 Python/3.7.6 Linux/5.4.109+ botocore/1.16.26,200
235,2023-03-08 15:28:44+00:00,35.237.192.99,United States of America,-,aws-cli/1.18.76 Python/3.7.6 Linux/5.4.109+ botocore/1.16.26,204
236,2023-03-08 15:28:44+00:00,35.237.192.99,United States of America,-,aws-cli/1.18.76 Python/3.7.6 Linux/5.4.109+ botocore/1.16.26,204
237,2023-03-08 15:28:04+00:00,35.229.44.224,United States of America,-,aws-cli/1.18.76 Python/3.7.6 Linux/5.4.109+ botocore/1.16.26,200
238,2023-03-08 15:28:04+00:00,35.229.44.224,United States of America,-,aws-cli/1.18.76 Python/3.7.6 Linux/5.4.109+ botocore/1.16.26,200
239,2023-03-08 15:28:44+00:00,35.237.192.99,United States of America,-,aws-cli/1.18.76 Python/3.7.6 Linux/5.4.109+ botocore/1.16.26,200
240,2023-03-08 15:28:44+00:00,35.237.192.99,United States of America,-,aws-cli/1.18.76 Python/3.7.6 Linux/5.4.109+ botocore/1.16.26,204
241,2023-03-09 09:36:11+00:00,165.225.92.244,Spain,http://clauro-website.s3-website-sa-east-1.amazonaws.com/,"Mozilla/5.0 (Windows NT 10.0; Win64; x64) AppleWebKit/537.36 (KHTML, like Gecko) Chrome/110.0.0.0 Safari/537.36",200
242,2023-03-09 09:36:09+00:00,165.225.92.244,Spain,-,"Mozilla/5.0 (Windows NT 10.0; Win64; x64) AppleWebKit/537.36 (KHTML, like Gecko) Chrome/110.0.0.0 Safari/537.36",200
243,2023-03-09 09:36:10+00:00,165.225.92.244,Spain,http://clauro-website.s3-website-sa-east-1.amazonaws.com/,"Mozilla/5.0 (Windows NT 10.0; Win64; x64) AppleWebKit/537.36 (KHTML, like Gecko) Chrome/110.0.0.0 Safari/537.36",200
244,2023-03-09 09:36:10+00:00,165.225.92.244,Spain,http://clauro-website.s3-website-sa-east-1.amazonaws.com/,"Mozilla/5.0 (Windows NT 10.0; Win64; x64) AppleWebKit/537.36 (KHTML, like Gecko) Chrome/110.0.0.0 Safari/537.36",200
245,2023-03-09 09:36:10+00:00,165.225.92.244,Spain,http://clauro-website.s3-website-sa-east-1.amazonaws.com/,"Mozilla/5.0 (Windows NT 10.0; Win64; x64) AppleWebKit/537.36 (KHTML, like Gecko) Chrome/110.0.0.0 Safari/537.36",200
246,2023-03-09 14:36:19+00:00,187.37.87.113,Brazil,-,"S3Console/0.4, aws-internal/3 aws-sdk-java/1.11.1030 Linux/5.10.165-126.735.amzn2int.x86_64 OpenJDK_64-Bit_Server_VM/25.352-b08 java/1.8.0_352 vendor/Oracle_Corporation cfg/retry-mode/standard",200
247,2023-03-09 14:36:19+00:00,187.37.87.113,Brazil,-,"S3Console/0.4, aws-internal/3 aws-sdk-java/1.11.1030 Linux/5.10.167-130.601.amzn2int.x86_64 OpenJDK_64-Bit_Server_VM/25.352-b08 java/1.8.0_352 vendor/Oracle_Corporation cfg/retry-mode/standard",200
248,2023-03-09 14:36:19+00:00,187.37.87.113,Brazil,-,"S3Console/0.4, aws-internal/3 aws-sdk-java/1.11.1030 Linux/5.10.167-130.601.amzn2int.x86_64 OpenJDK_64-Bit_Server_VM/25.352-b08 java/1.8.0_352 vendor/Oracle_Corporation cfg/retry-mode/standard",200
249,2023-03-09 14:36:19+00:00,187.37.87.113,Brazil,-,"S3Console/0.4, aws-internal/3 aws-sdk-java/1.11.1030 Linux/5.10.167-130.601.amzn2int.x86_64 OpenJDK_64-Bit_Server_VM/25.352-b08 java/1.8.0_352 vendor/Oracle_Corporation cfg/retry-mode/standard",200
250,2023-03-09 14:36:20+00:00,187.37.87.113,Brazil,-,"S3Console/0.4, aws-internal/3 aws-sdk-java/1.11.1030 Linux/5.4.231-145.341.amzn2int.x86_64 OpenJDK_64-Bit_Server_VM/25.352-b08 java/1.8.0_352 vendor/Oracle_Corporation cfg/retry-mode/standard",200
251,2023-03-09 14:36:20+00:00,187.37.87.113,Brazil,-,"S3Console/0.4, aws-internal/3 aws-sdk-java/1.11.1030 Linux/5.4.231-145.341.amzn2int.x86_64 OpenJDK_64-Bit_Server_VM/25.352-b08 java/1.8.0_352 vendor/Oracle_Corporation cfg/retry-mode/standard",200
252,2023-03-09 14:36:20+00:00,187.37.87.113,Brazil,-,"S3Console/0.4, aws-internal/3 aws-sdk-java/1.11.1030 Linux/5.4.231-145.341.amzn2int.x86_64 OpenJDK_64-Bit_Server_VM/25.352-b08 java/1.8.0_352 vendor/Oracle_Corporation cfg/retry-mode/standard",200
253,2023-03-09 15:53:33+00:00,187.37.87.113,Brazil,-,"S3Console/0.4, aws-internal/3 aws-sdk-java/1.11.1030 Linux/5.10.165-126.735.amzn2int.x86_64 OpenJDK_64-Bit_Server_VM/25.352-b08 java/1.8.0_352 vendor/Oracle_Corporation cfg/retry-mode/standard",200
254,2023-03-09 15:53:33+00:00,187.37.87.113,Brazil,-,"S3Console/0.4, aws-internal/3 aws-sdk-java/1.11.1030 Linux/5.10.165-126.735.amzn2int.x86_64 OpenJDK_64-Bit_Server_VM/25.352-b08 java/1.8.0_352 vendor/Oracle_Corporation cfg/retry-mode/standard",200
255,2023-03-09 15:53:33+00:00,187.37.87.113,Brazil,-,"S3Console/0.4, aws-internal/3 aws-sdk-java/1.11.1030 Linux/5.10.165-126.735.amzn2int.x86_64 OpenJDK_64-Bit_Server_VM/25.352-b08 java/1.8.0_352 vendor/Oracle_Corporation cfg/retry-mode/standard",200
256,2023-03-09 15:53:33+00:00,187.37.87.113,Brazil,-,"S3Console/0.4, aws-internal/3 aws-sdk-java/1.11.1030 Linux/5.4.231-145.341.amzn2int.x86_64 OpenJDK_64-Bit_Server_VM/25.352-b08 java/1.8.0_352 vendor/Oracle_Corporation cfg/retry-mode/standard",200
257,2023-03-09 15:53:33+00:00,187.37.87.113,Brazil,-,"S3Console/0.4, aws-internal/3 aws-sdk-java/1.11.1030 Linux/5.4.231-145.341.amzn2int.x86_64 OpenJDK_64-Bit_Server_VM/25.352-b08 java/1.8.0_352 vendor/Oracle_Corporation cfg/retry-mode/standard",200
258,2023-03-09 15:53:33+00:00,187.37.87.113,Brazil,-,"S3Console/0.4, aws-internal/3 aws-sdk-java/1.11.1030 Linux/5.4.231-145.341.amzn2int.x86_64 OpenJDK_64-Bit_Server_VM/25.352-b08 java/1.8.0_352 vendor/Oracle_Corporation cfg/retry-mode/standard",200
259,2023-03-09 15:53:33+00:00,187.37.87.113,Brazil,-,"S3Console/0.4, aws-internal/3 aws-sdk-java/1.11.1030 Linux/5.10.165-126.735.amzn2int.x86_64 OpenJDK_64-Bit_Server_VM/25.352-b08 java/1.8.0_352 vendor/Oracle_Corporation cfg/retry-mode/standard",200
260,2023-03-09 18:21:14+00:00,193.187.113.124,Malaysia,-,Go-http-client/1.1,403
261,2023-03-10 14:19:01+00:00,187.44.162.234,Brazil,-,"S3Console/0.4, aws-internal/3 aws-sdk-java/1.11.1030 Linux/5.10.165-126.735.amzn2int.x86_64 OpenJDK_64-Bit_Server_VM/25.352-b08 java/1.8.0_352 vendor/Oracle_Corporation cfg/retry-mode/standard",200
262,2023-03-10 14:19:01+00:00,187.44.162.234,Brazil,-,"S3Console/0.4, aws-internal/3 aws-sdk-java/1.11.1030 Linux/5.10.165-126.735.amzn2int.x86_64 OpenJDK_64-Bit_Server_VM/25.352-b08 java/1.8.0_352 vendor/Oracle_Corporation cfg/retry-mode/standard",200
263,2023-03-10 14:19:01+00:00,187.44.162.234,Brazil,-,"S3Console/0.4, aws-internal/3 aws-sdk-java/1.11.1030 Linux/5.10.165-126.735.amzn2int.x86_64 OpenJDK_64-Bit_Server_VM/25.352-b08 java/1.8.0_352 vendor/Oracle_Corporation cfg/retry-mode/standard",200
264,2023-03-10 14:19:01+00:00,187.44.162.234,Brazil,-,"S3Console/0.4, aws-internal/3 aws-sdk-java/1.11.1030 Linux/5.10.167-130.601.amzn2int.x86_64 OpenJDK_64-Bit_Server_VM/25.352-b08 java/1.8.0_352 vendor/Oracle_Corporation cfg/retry-mode/standard",200
265,2023-03-10 14:19:01+00:00,187.44.162.234,Brazil,-,"S3Console/0.4, aws-internal/3 aws-sdk-java/1.11.1030 Linux/5.10.167-130.601.amzn2int.x86_64 OpenJDK_64-Bit_Server_VM/25.352-b08 java/1.8.0_352 vendor/Oracle_Corporation cfg/retry-mode/standard",200
266,2023-03-10 14:19:01+00:00,187.44.162.234,Brazil,-,"S3Console/0.4, aws-internal/3 aws-sdk-java/1.11.1030 Linux/5.10.167-130.601.amzn2int.x86_64 OpenJDK_64-Bit_Server_VM/25.352-b08 java/1.8.0_352 vendor/Oracle_Corporation cfg/retry-mode/standard",200
267,2023-03-10 14:19:00+00:00,187.44.162.234,Brazil,-,"S3Console/0.4, aws-internal/3 aws-sdk-java/1.11.1030 Linux/5.4.231-145.341.amzn2int.x86_64 OpenJDK_64-Bit_Server_VM/25.352-b08 java/1.8.0_352 vendor/Oracle_Corporation cfg/retry-mode/standard",200
268,2023-03-10 21:00:32+00:00,187.44.162.234,Brazil,http://clauro-website.s3-website-sa-east-1.amazonaws.com/,"Mozilla/5.0 (Windows NT 10.0; Win64; x64) AppleWebKit/537.36 (KHTML, like Gecko) Chrome/110.0.0.0 Safari/537.36",304
269,2023-03-10 21:05:25+00:00,34.138.151.79,United States of America,-,aws-cli/1.18.76 Python/3.7.6 Linux/5.4.109+ botocore/1.16.26,204
270,2023-03-10 21:00:32+00:00,187.44.162.234,Brazil,http://clauro-website.s3-website-sa-east-1.amazonaws.com/,"Mozilla/5.0 (Windows NT 10.0; Win64; x64) AppleWebKit/537.36 (KHTML, like Gecko) Chrome/110.0.0.0 Safari/537.36",304
271,2023-03-10 21:05:25+00:00,34.138.151.79,United States of America,-,aws-cli/1.18.76 Python/3.7.6 Linux/5.4.109+ botocore/1.16.26,204
272,2023-03-10 21:00:31+00:00,187.44.162.234,Brazil,-,"Mozilla/5.0 (Windows NT 10.0; Win64; x64) AppleWebKit/537.36 (KHTML, like Gecko) Chrome/110.0.0.0 Safari/537.36",200
273,2023-03-10 21:00:32+00:00,187.44.162.234,Brazil,http://clauro-website.s3-website-sa-east-1.amazonaws.com/,"Mozilla/5.0 (Windows NT 10.0; Win64; x64) AppleWebKit/537.36 (KHTML, like Gecko) Chrome/110.0.0.0 Safari/537.36",200
274,2023-03-10 21:00:32+00:00,187.44.162.234,Brazil,http://clauro-website.s3-website-sa-east-1.amazonaws.com/,"Mozilla/5.0 (Windows NT 10.0; Win64; x64) AppleWebKit/537.36 (KHTML, like Gecko) Chrome/110.0.0.0 Safari/537.36",200
275,2023-03-10 21:05:24+00:00,34.138.151.79,United States of America,-,aws-cli/1.18.76 Python/3.7.6 Linux/5.4.109+ botocore/1.16.26,200
276,2023-03-10 21:05:24+00:00,34.138.151.79,United States of America,-,aws-cli/1.18.76 Python/3.7.6 Linux/5.4.109+ botocore/1.16.26,200
277,2023-03-10 21:05:24+00:00,34.138.151.79,United States of America,-,aws-cli/1.18.76 Python/3.7.6 Linux/5.4.109+ botocore/1.16.26,200
278,2023-03-10 21:05:25+00:00,34.138.151.79,United States of America,-,aws-cli/1.18.76 Python/3.7.6 Linux/5.4.109+ botocore/1.16.26,204
279,2023-03-10 21:05:25+00:00,34.138.151.79,United States of America,-,aws-cli/1.18.76 Python/3.7.6 Linux/5.4.109+ botocore/1.16.26,204
280,2023-03-10 21:07:09+00:00,187.44.162.234,Brazil,-,"Mozilla/5.0 (Windows NT 10.0; Win64; x64) AppleWebKit/537.36 (KHTML, like Gecko) Chrome/110.0.0.0 Safari/537.36",200
281,2023-03-10 21:05:25+00:00,34.138.151.79,United States of America,-,aws-cli/1.18.76 Python/3.7.6 Linux/5.4.109+ botocore/1.16.26,204
282,2023-03-10 21:05:25+00:00,34.138.151.79,United States of America,-,aws-cli/1.18.76 Python/3.7.6 Linux/5.4.109+ botocore/1.16.26,204
283,2023-03-10 21:05:25+00:00,34.138.151.79,United States of America,-,aws-cli/1.18.76 Python/3.7.6 Linux/5.4.109+ botocore/1.16.26,204
284,2023-03-10 21:05:25+00:00,34.138.151.79,United States of America,-,aws-cli/1.18.76 Python/3.7.6 Linux/5.4.109+ botocore/1.16.26,204
285,2023-03-10 21:05:25+00:00,34.138.151.79,United States of America,-,aws-cli/1.18.76 Python/3.7.6 Linux/5.4.109+ botocore/1.16.26,204
286,2023-03-11 20:36:32+00:00,205.237.94.31,United States of America,-,Go-http-client/1.1,403
287,2023-03-12 20:18:49+00:00,206.204.4.13,United States of America,-,Go-http-client/1.1,403
